Android Component@NULL|name@Android Component|amount@74|filepath@images/misc_items/android_component.png|WG@0|VAL@0
Antique Lincoln Coin Collection@NULL|name@Antique Lincoln Coin Collection|amount@81|filepath@images/misc_items/antique_lincoln_coin_collection.png|WG@1|VAL@5
Archives Prize Voucher@NULL|name@Archives Prize Voucher|amount@97|filepath@images/misc_items/archives_prize_voucher.png|WG@1|VAL@0
Bill Of Rights@NULL|name@Bill Of Rights|amount@58|filepath@images/misc_items/bill_of_rights.png|WG@1|VAL@0
Birch's Sap@NULL|name@Birch's Sap|amount@95|filepath@images/misc_items/birch's_sap.png|WG@1|VAL@0
Card Catalog Holotape@NULL|name@Card Catalog Holotape|amount@70|filepath@images/misc_items/card_catalog_holotape.png|WG@0|VAL@0
Charon's Employment Contract@NULL|name@Charon's Employment Contract|amount@72|filepath@images/misc_items/charon's_employment_contract.png|WG@0|VAL@1
Close Assault Requisition Holo@NULL|name@Close Assault Requisition Holo|amount@4|filepath@images/misc_items/close_assault_requisition_holo.png|WG@0|VAL@0
Cogwave Jammer@NULL|name@Cogwave Jammer|amount@23|filepath@images/misc_items/cogwave_jammer.png|WG@7|VAL@0
Crumpled Note@NULL|name@Crumpled Note|amount@49|filepath@images/misc_items/crumpled_note.png|WG@1|VAL@1
Deathclaw Control Scrambler@NULL|name@Deathclaw Control Scrambler|amount@6|filepath@images/misc_items/deathclaw_control_scrambler.png|WG@0|VAL@0
Declaration Of Independence@NULL|name@Declaration Of Independence|amount@18|filepath@images/misc_items/declaration_of_independence.png|WG@1|VAL@0
Donovan's Wrench@NULL|name@Donovan's Wrench|amount@21|filepath@images/misc_items/donovan's_wrench.png|WG@0|VAL@75
Drone Control Device@NULL|name@Drone Control Device|amount@76|filepath@images/misc_items/drone_control_device.png|WG@3|VAL@300
Empty Sap Container@NULL|name@Empty Sap Container|amount@27|filepath@images/misc_items/empty_sap_container.png|WG@1|VAL@0
Explosive Charge@NULL|name@Explosive Charge|amount@53|filepath@images/misc_items/explosive_charge.png|WG@0|VAL@0
Fire Team Requisition Holo@NULL|name@Fire Team Requisition Holo|amount@87|filepath@images/misc_items/fire_team_requisition_holo.png|WG@0|VAL@0
Food Sanitizer@NULL|name@Food Sanitizer|amount@18|filepath@images/misc_items/food_sanitizer.png|WG@7|VAL@150
Forged Declaration@NULL|name@Forged Declaration|amount@48|filepath@images/misc_items/forged_declaration.png|WG@1|VAL@0
Fuse@NULL|name@Fuse|amount@59|filepath@images/misc_items/fuse.png|WG@0|VAL@0
Fusion Pulse Charge@NULL|name@Fusion Pulse Charge|amount@37|filepath@images/misc_items/fusion_pulse_charge.png|WG@0|VAL@1
G.E.C.K.@NULL|name@G.E.C.K.|amount@33|filepath@images/misc_items/geck.png|WG@5|VAL@0
Geomapper Module@NULL|name@Geomapper Module|amount@80|filepath@images/misc_items/geomapper_module.png|WG@1|VAL@20
Heavy Weapons Requisition Holo@NULL|name@Heavy Weapons Requisition Holo|amount@1|filepath@images/misc_items/heavy_weapons_requisition_holo.png|WG@0|VAL@0
Holotape@NULL|name@Holotape|amount@33|filepath@images/misc_items/holotape.png|WG@0|VAL@0
Ink Container@NULL|name@Ink Container|amount@57|filepath@images/misc_items/ink_container.png|WG@1|VAL@3
John Wilkes Booth Wanted Poster@NULL|name@John Wilkes Booth Wanted Poster|amount@16|filepath@images/misc_items/john_wilkes_booth_wanted_poster.png|WG@1|VAL@5
Junders Plunkett's Finger@NULL|name@Junders Plunkett's Finger|amount@60|filepath@images/misc_items/junders_plunkett's_finger.png|WG@0|VAL@1
Kenny-bear@NULL|name@Kenny-bear|amount@75|filepath@images/misc_items/kenny-bear.png|WG@1|VAL@0
Krivbeknih@NULL|name@Krivbeknih|amount@67|filepath@images/misc_items/krivbeknih.png|WG@0|VAL@15
Lab Access Card@NULL|name@Lab Access Card|amount@38|filepath@images/misc_items/lab_access_card.png|WG@0|VAL@1
Lacy Underwear@NULL|name@Lacy Underwear|amount@11|filepath@images/misc_items/lacy_underwear.png|WG@0|VAL@3
Laurel's Liniment@NULL|name@Laurel's Liniment|amount@29|filepath@images/misc_items/laurel's_liniment.png|WG@1|VAL@0
Lincoln Memorial Poster@NULL|name@Lincoln Memorial Poster|amount@70|filepath@images/misc_items/lincoln_memorial_poster.png|WG@1|VAL@0
Lincoln's Diary@NULL|name@Lincoln's Diary|amount@4|filepath@images/misc_items/lincoln's_diary.png|WG@1|VAL@5
Lincoln's Voice@NULL|name@Lincoln's Voice|amount@88|filepath@images/misc_items/lincoln's_voice.png|WG@2|VAL@5
Lucky 8-ball@NULL|name@Lucky 8-ball|amount@11|filepath@images/misc_items/lucky_8-ball.png|WG@1|VAL@4
Lucy's Sealed Envelope@NULL|name@Lucy's Sealed Envelope|amount@35|filepath@images/misc_items/lucy's_sealed_envelope.png|WG@0|VAL@0
Magna Carta@NULL|name@Magna Carta|amount@81|filepath@images/misc_items/magna_carta.png|WG@1|VAL@0
Main Fuse@NULL|name@Main Fuse|amount@8|filepath@images/misc_items/main_fuse.png|WG@0|VAL@0
Marie@NULL|name@Marie|amount@5|filepath@images/misc_items/marie.png|WG@5|VAL@0
Media Archives Holotape@NULL|name@Media Archives Holotape|amount@75|filepath@images/misc_items/media_archives_holotape.png|WG@0|VAL@0
Military School Brochure@NULL|name@Military School Brochure|amount@96|filepath@images/misc_items/military_school_brochure.png|WG@0|VAL@0
Modified FEV Virus@NULL|name@Modified FEV Virus|amount@90|filepath@images/misc_items/modified_fev_virus.png|WG@1|VAL@0
Nuka-Cola Clear Formula@NULL|name@Nuka-Cola Clear Formula|amount@55|filepath@images/misc_items/nuka-cola_clear_formula.png|WG@1|VAL@150
Observer@NULL|name@Observer|amount@95|filepath@images/misc_items/observer.png|WG@1|VAL@0
Plik's Journal@NULL|name@Plik's Journal|amount@39|filepath@images/misc_items/plik's_journal.png|WG@1|VAL@1
Pre-War Book (green)@NULL|name@Pre-War Book (green)|amount@65|filepath@images/misc_items/pre-war_book_(green).png|WG@1|VAL@1
Punga Seeds@NULL|name@Punga Seeds|amount@67|filepath@images/misc_items/punga_seeds.png|WG@0|VAL@25
Recruitment Marker@NULL|name@Recruitment Marker|amount@91|filepath@images/misc_items/recruitment_marker.png|WG@0|VAL@1
Rivet City Historical Record@NULL|name@Rivet City Historical Record|amount@94|filepath@images/misc_items/rivet_city_historical_record.png|WG@1|VAL@0
RobCo Processor Widget@NULL|name@RobCo Processor Widget|amount@20|filepath@images/misc_items/robco_processor_widget.png|WG@1|VAL@0
Senate Employee ID@NULL|name@Senate Employee ID|amount@82|filepath@images/misc_items/senate_employee_id.png|WG@0|VAL@0
Sheet Music Book@NULL|name@Sheet Music Book|amount@80|filepath@images/misc_items/sheet_music_book.png|WG@1|VAL@100
Slave Collar@NULL|name@Slave Collar|amount@47|filepath@images/misc_items/slave_collar.png|WG@1|VAL@0
Sniper Requisition Holo@NULL|name@Sniper Requisition Holo|amount@41|filepath@images/misc_items/sniper_requisition_holo.png|WG@0|VAL@0
Steel Ingot@NULL|name@Steel Ingot|amount@93|filepath@images/misc_items/steel_ingot.png|WG@1|VAL@1
Soil Stradivarius@NULL|name@Soil Stradivarius|amount@6|filepath@images/misc_items/soil_stradivarius.png|WG@3|VAL@0
Submarine Self-destruct Codes@NULL|name@Submarine Self-destruct Codes|amount@94|filepath@images/misc_items/submarine_self-destruct_codes.png|WG@0|VAL@0
Tesla Coil@NULL|name@Tesla Coil|amount@5|filepath@images/misc_items/tesla_coil.png|WG@3|VAL@0
Vance's Proposal@NULL|name@Vance's Proposal|amount@31|filepath@images/misc_items/vance's_proposal.png|WG@0|VAL@0
Virgo II Dish@NULL|name@Virgo II Dish|amount@73|filepath@images/misc_items/virgo_ii_dish.png|WG@0|VAL@1
Wernher's Note To Midea@NULL|name@Wernher's Note To Midea|amount@97|filepath@images/misc_items/wernher's_note_to_midea.png|WG@1|VAL@0
Yew's Bear Charm@NULL|name@Yew's Bear Charm|amount@11|filepath@images/misc_items/yew's_bear_charm.png|WG@1|VAL@50
10-ball@NULL|name@10-ball|amount@65|filepath@images/misc_items/10-ball.png|WG@1|VAL@2
13-ball@NULL|name@13-ball|amount@35|filepath@images/misc_items/13-ball.png|WG@1|VAL@2
2-ball@NULL|name@2-ball|amount@88|filepath@images/misc_items/2-ball.png|WG@1|VAL@2
5-ball@NULL|name@5-ball|amount@27|filepath@images/misc_items/5-ball.png|WG@1|VAL@2
8-ball@NULL|name@8-ball|amount@6|filepath@images/misc_items/8-ball.png|WG@1|VAL@2
Abraxo Cleaner@NULL|name@Abraxo Cleaner|amount@55|filepath@images/misc_items/abraxo_cleaner.png|WG@1|VAL@5
Ashtray@NULL|name@Ashtray|amount@47|filepath@images/misc_items/ashtray.png|WG@1|VAL@1
Baseball@NULL|name@Baseball|amount@56|filepath@images/misc_items/baseball.png|WG@1|VAL@2
Baseball Glove@NULL|name@Baseball Glove|amount@98|filepath@images/misc_items/baseball_glove.png|WG@1|VAL@4
Basketball@NULL|name@Basketball|amount@46|filepath@images/misc_items/basketball.png|WG@1|VAL@1
Bent Tin Can@NULL|name@Bent Tin Can|amount@41|filepath@images/misc_items/bent_tin_can.png|WG@1|VAL@1
Big Spoon@NULL|name@Big Spoon|amount@53|filepath@images/misc_items/big_spoon.png|WG@1|VAL@1
Blue Pass Card@NULL|name@Blue Pass Card|amount@69|filepath@images/misc_items/blue_pass_card.png|WG@0|VAL@1
Bobby Pin@NULL|name@Bobby Pin|amount@10|filepath@images/misc_items/bobby_pin.png|WG@0|VAL@1
Bonesaw@NULL|name@Bonesaw|amount@3|filepath@images/misc_items/bonesaw.png|WG@2|VAL@5
Bottle Cap@NULL|name@Bottle Cap|amount@40|filepath@images/misc_items/bottle_cap.png|WG@0|VAL@1
Box Of Detergent@NULL|name@Box Of Detergent|amount@79|filepath@images/misc_items/box_of_detergent.png|WG@1|VAL@1
Brahmin Skull@NULL|name@Brahmin Skull|amount@28|filepath@images/misc_items/brahmin_skull.png|WG@2|VAL@1
Brotherhood Of Steel Holotag@NULL|name@Brotherhood Of Steel Holotag|amount@20|filepath@images/misc_items/brotherhood_of_steel_holotag.png|WG@0|VAL@1
Butter Knife@NULL|name@Butter Knife|amount@27|filepath@images/misc_items/butter_knife.png|WG@1|VAL@1
Camera@NULL|name@Camera|amount@100|filepath@images/misc_items/camera.png|WG@1|VAL@5
Carton Of Cigarettes@NULL|name@Carton Of Cigarettes|amount@75|filepath@images/misc_items/carton_of_cigarettes.png|WG@2|VAL@50
Ceramic Dinner Plate@NULL|name@Ceramic Dinner Plate|amount@51|filepath@images/misc_items/ceramic_dinner_plate.png|WG@1|VAL@1
Cherry Bomb@NULL|name@Cherry Bomb|amount@21|filepath@images/misc_items/cherry_bomb.png|WG@0|VAL@5
Chessboard@NULL|name@Chessboard|amount@57|filepath@images/misc_items/chessboard.png|WG@1|VAL@1
Cigarette@NULL|name@Cigarette|amount@52|filepath@images/misc_items/cigarette.png|WG@0|VAL@1
Clipboard@NULL|name@Clipboard|amount@24|filepath@images/misc_items/clipboard.png|WG@1|VAL@1
Coffee Mug@NULL|name@Coffee Mug|amount@87|filepath@images/misc_items/coffee_mug.png|WG@1|VAL@1
Coffee Pot@NULL|name@Coffee Pot|amount@66|filepath@images/misc_items/coffee_pot.png|WG@1|VAL@1
Conductor@NULL|name@Conductor|amount@7|filepath@images/misc_items/conductor.png|WG@5|VAL@30
Crutch@NULL|name@Crutch|amount@9|filepath@images/misc_items/crutch.png|WG@2|VAL@5
Cue Ball@NULL|name@Cue Ball|amount@41|filepath@images/misc_items/cue_ball.png|WG@1|VAL@3
Cup@NULL|name@Cup|amount@40|filepath@images/misc_items/cup.png|WG@1|VAL@1
Cutting Board@NULL|name@Cutting Board|amount@73|filepath@images/misc_items/cutting_board.png|WG@1|VAL@1
Damaged Garden Gnome@NULL|name@Damaged Garden Gnome|amount@4|filepath@images/misc_items/damaged_garden_gnome.png|WG@4|VAL@1
Danielle's Book@NULL|name@Danielle's Book|amount@22|filepath@images/misc_items/danielle's_book.png|WG@1|VAL@1
Deathclaw Hand@NULL|name@Deathclaw Hand|amount@55|filepath@images/misc_items/deathclaw_hand.png|WG@1|VAL@25
Dinner Plate@NULL|name@Dinner Plate|amount@42|filepath@images/misc_items/dinner_plate.png|WG@1|VAL@1
Dog Bowl@NULL|name@Dog Bowl|amount@8|filepath@images/misc_items/dog_bowl.png|WG@1|VAL@1
Door Component@NULL|name@Door Component|amount@41|filepath@images/misc_items/door_component.png|WG@1|VAL@1
Drinking Glass@NULL|name@Drinking Glass|amount@21|filepath@images/misc_items/drinking_glass.png|WG@1|VAL@1
Earnings Clipboard@NULL|name@Earnings Clipboard|amount@2|filepath@images/misc_items/earnings_clipboard.png|WG@1|VAL@1
Empty Nuka-Cola Bottle@NULL|name@Empty Nuka-Cola Bottle|amount@45|filepath@images/misc_items/empty_nuka-cola_bottle.png|WG@1|VAL@2
Empty Soda Bottle@NULL|name@Empty Soda Bottle|amount@95|filepath@images/misc_items/empty_soda_bottle.png|WG@1|VAL@1
Empty Syringe@NULL|name@Empty Syringe|amount@28|filepath@images/misc_items/empty_syringe.png|WG@1|VAL@5
Empty Whiskey Bottle@NULL|name@Empty Whiskey Bottle|amount@79|filepath@images/misc_items/empty_whiskey_bottle.png|WG@1|VAL@1
Experimental Rho ID@NULL|name@Experimental Rho ID|amount@43|filepath@images/misc_items/experimental_rho_id.png|WG@0|VAL@1
Finance Clipboard@NULL|name@Finance Clipboard|amount@38|filepath@images/misc_items/finance_clipboard.png|WG@1|VAL@1
Firehose Nozzle@NULL|name@Firehose Nozzle|amount@70|filepath@images/misc_items/firehose_nozzle.png|WG@1|VAL@5
Fishing Pole@NULL|name@Fishing Pole|amount@65|filepath@images/misc_items/fishing_pole.png|WG@1.5|VAL@10
Fission Battery@NULL|name@Fission Battery|amount@23|filepath@images/misc_items/fission_battery.png|WG@10|VAL@75
Flour@NULL|name@Flour|amount@97|filepath@images/misc_items/flour.png|WG@1|VAL@2
Forceps@NULL|name@Forceps|amount@14|filepath@images/misc_items/forceps.png|WG@1|VAL@5
Fork@NULL|name@Fork|amount@28|filepath@images/misc_items/fork.png|WG@0.5|VAL@1
Garden Gnome@NULL|name@Garden Gnome|amount@54|filepath@images/misc_items/garden_gnome.png|WG@5|VAL@1
Glass Pitcher@NULL|name@Glass Pitcher|amount@48|filepath@images/misc_items/glass_pitcher.png|WG@1|VAL@1
Green Plate@NULL|name@Green Plate|amount@63|filepath@images/misc_items/green_plate.png|WG@1|VAL@1
Hammer@NULL|name@Hammer|amount@68|filepath@images/misc_items/hammer.png|WG@2|VAL@3
Harmonica@NULL|name@Harmonica|amount@34|filepath@images/misc_items/harmonica.png|WG@1|VAL@2
Hot Plate@NULL|name@Hot Plate|amount@16|filepath@images/misc_items/hot_plate.png|WG@2|VAL@5
Intact Garden Gnome@NULL|name@Intact Garden Gnome|amount@18|filepath@images/misc_items/intact_garden_gnome.png|WG@5|VAL@1
Iron@NULL|name@Iron|amount@23|filepath@images/misc_items/iron.png|WG@5|VAL@2
Large Alien Crystal@NULL|name@Large Alien Crystal|amount@73|filepath@images/misc_items/large_alien_crystal.png|WG@0|VAL@20
Large Burned Book@NULL|name@Large Burned Book|amount@77|filepath@images/misc_items/large_burned_book.png|WG@1|VAL@1
Large Destroyed Book@NULL|name@Large Destroyed Book|amount@86|filepath@images/misc_items/large_destroyed_book.png|WG@1|VAL@1
Large Ruined Book@NULL|name@Large Ruined Book|amount@76|filepath@images/misc_items/large_ruined_book.png|WG@1|VAL@1
Large Scorched Book@NULL|name@Large Scorched Book|amount@16|filepath@images/misc_items/large_scorched_book.png|WG@1|VAL@1
Large Whiskey Bottle@NULL|name@Large Whiskey Bottle|amount@50|filepath@images/misc_items/large_whiskey_bottle.png|WG@2|VAL@5
Lawn Mower Blade@NULL|name@Lawn Mower Blade|amount@60|filepath@images/misc_items/lawn_mower_blade.png|WG@2|VAL@10
Leaf Blower@NULL|name@Leaf Blower|amount@67|filepath@images/misc_items/leaf_blower.png|WG@2|VAL@15
Leather Belt@NULL|name@Leather Belt|amount@69|filepath@images/misc_items/leather_belt.png|WG@1|VAL@5
Lighthouse Bulb@NULL|name@Lighthouse Bulb|amount@27|filepath@images/misc_items/lighthouse_bulb.png|WG@5|VAL@60
Lump Of Brain@NULL|name@Lump Of Brain|amount@79|filepath@images/misc_items/lump_of_brain.png|WG@0|VAL@0
Lunchbox@NULL|name@Lunchbox|amount@75|filepath@images/misc_items/lunchbox.png|WG@1|VAL@3
Medical Brace@NULL|name@Medical Brace|amount@97|filepath@images/misc_items/medical_brace.png|WG@2|VAL@10
Medical Brace@NULL|name@Medical Brace|amount@4|filepath@images/misc_items/medical_brace.png|WG@1|VAL@2
Medical Clipboard@NULL|name@Medical Clipboard|amount@49|filepath@images/misc_items/medical_clipboard.png|WG@1|VAL@1
Metal Cooking Pan@NULL|name@Metal Cooking Pan|amount@51|filepath@images/misc_items/metal_cooking_pan.png|WG@1|VAL@5
Metal Cooking Pot@NULL|name@Metal Cooking Pot|amount@25|filepath@images/misc_items/metal_cooking_pot.png|WG@1|VAL@1
Metal Spoon@NULL|name@Metal Spoon|amount@10|filepath@images/misc_items/metal_spoon.png|WG@0.5|VAL@1
Metro Ticket@NULL|name@Metro Ticket|amount@61|filepath@images/misc_items/metro_ticket.png|WG@0|VAL@1
Milk Bottle@NULL|name@Milk Bottle|amount@61|filepath@images/misc_items/milk_bottle.png|WG@1|VAL@1
Motorcycle Gas Tank@NULL|name@Motorcycle Gas Tank|amount@55|filepath@images/misc_items/motorcycle_gas_tank.png|WG@5|VAL@25
Motorcycle Handbrake@NULL|name@Motorcycle Handbrake|amount@5|filepath@images/misc_items/motorcycle_handbrake.png|WG@1|VAL@15
Mutilated Arm@NULL|name@Mutilated Arm|amount@82|filepath@images/misc_items/mutilated_arm.png|WG@2|VAL@0
Mutilated Leg@NULL|name@Mutilated Leg|amount@39|filepath@images/misc_items/mutilated_leg.png|WG@2|VAL@0
Mutilated Organs@NULL|name@Mutilated Organs|amount@42|filepath@images/misc_items/mutilated_organs.png|WG@2|VAL@0
Mutilated Skull@NULL|name@Mutilated Skull|amount@5|filepath@images/misc_items/mutilated_skull.png|WG@2|VAL@0
Mutilated Torso@NULL|name@Mutilated Torso|amount@44|filepath@images/misc_items/mutilated_torso.png|WG@2|VAL@0
Nuka-Cola Truck@NULL|name@Nuka-Cola Truck|amount@83|filepath@images/misc_items/nuka-cola_truck.png|WG@2|VAL@5
Office Employee ID@NULL|name@Office Employee ID|amount@21|filepath@images/misc_items/office_employee_id.png|WG@0|VAL@1
Opthalmoscope@NULL|name@Opthalmoscope|amount@16|filepath@images/misc_items/opthalmoscope.png|WG@1|VAL@4
Pack Of Cigarettes@NULL|name@Pack Of Cigarettes|amount@41|filepath@images/misc_items/pack_of_cigarettes.png|WG@0.5|VAL@10
Paint Gun@NULL|name@Paint Gun|amount@76|filepath@images/misc_items/paint_gun.png|WG@5|VAL@15
Paperweight@NULL|name@Paperweight|amount@84|filepath@images/misc_items/paperweight.png|WG@1|VAL@1
Pencil@NULL|name@Pencil|amount@38|filepath@images/misc_items/pencil.png|WG@0|VAL@1
Pilot Light@NULL|name@Pilot Light|amount@23|filepath@images/misc_items/pilot_light.png|WG@1|VAL@14
Plunger@NULL|name@Plunger|amount@13|filepath@images/misc_items/plunger.png|WG@1|VAL@1
Pool Ball@NULL|name@Pool Ball|amount@55|filepath@images/misc_items/pool_ball.png|WG@1|VAL@2
Pot@NULL|name@Pot|amount@3|filepath@images/misc_items/pot.png|WG@2|VAL@0
Pre-War Book (blue)@NULL|name@Pre-War Book (blue)|amount@34|filepath@images/misc_items/pre-war_book_(blue).png|WG@1|VAL@5
Pre-War Money@NULL|name@Pre-War Money|amount@74|filepath@images/misc_items/pre-war_money.png|WG@0|VAL@10
Pressure Cooker@NULL|name@Pressure Cooker|amount@26|filepath@images/misc_items/pressure_cooker.png|WG@5|VAL@15
Radscorpion Poison Gland@NULL|name@Radscorpion Poison Gland|amount@2|filepath@images/misc_items/radscorpion_poison_gland.png|WG@1|VAL@30
Rake@NULL|name@Rake|amount@73|filepath@images/misc_items/rake.png|WG@2|VAL@1
Red Pass Card@NULL|name@Red Pass Card|amount@70|filepath@images/misc_items/red_pass_card.png|WG@0|VAL@1
Red Plate@NULL|name@Red Plate|amount@7|filepath@images/misc_items/red_plate.png|WG@1|VAL@1
Riverboat Ticket@NULL|name@Riverboat Ticket|amount@11|filepath@images/misc_items/riverboat_ticket.png|WG@0|VAL@300
Scalpel@NULL|name@Scalpel|amount@6|filepath@images/misc_items/scalpel.png|WG@1|VAL@5
Scissors@NULL|name@Scissors|amount@99|filepath@images/misc_items/scissors.png|WG@1|VAL@3
Scrap Metal@NULL|name@Scrap Metal|amount@17|filepath@images/misc_items/scrap_metal.png|WG@1|VAL@1
Sensor Module@NULL|name@Sensor Module|amount@48|filepath@images/misc_items/sensor_module.png|WG@2|VAL@30
Shot Glass@NULL|name@Shot Glass|amount@87|filepath@images/misc_items/shot_glass.png|WG@1|VAL@1
Small Alien Crystal@NULL|name@Small Alien Crystal|amount@89|filepath@images/misc_items/small_alien_crystal.png|WG@0|VAL@10
Small Burned Book@NULL|name@Small Burned Book|amount@9|filepath@images/misc_items/small_burned_book.png|WG@1|VAL@1
Small Destroyed Book@NULL|name@Small Destroyed Book|amount@75|filepath@images/misc_items/small_destroyed_book.png|WG@1|VAL@1
Small Ruined Book@NULL|name@Small Ruined Book|amount@51|filepath@images/misc_items/small_ruined_book.png|WG@1|VAL@1
Small Scorched Book@NULL|name@Small Scorched Book|amount@97|filepath@images/misc_items/small_scorched_book.png|WG@1|VAL@1
Spatula@NULL|name@Spatula|amount@74|filepath@images/misc_items/spatula.png|WG@1|VAL@1
Spork@NULL|name@Spork|amount@44|filepath@images/misc_items/spork.png|WG@0.5|VAL@1
Steam Gauge Assembly@NULL|name@Steam Gauge Assembly|amount@95|filepath@images/misc_items/steam_gauge_assembly.png|WG@10|VAL@25
Super Mutant Blood Sample@NULL|name@Super Mutant Blood Sample|amount@52|filepath@images/misc_items/super_mutant_blood_sample.png|WG@0|VAL@1
Surgical Tubing@NULL|name@Surgical Tubing|amount@66|filepath@images/misc_items/surgical_tubing.png|WG@1|VAL@10
Teddy Bear@NULL|name@Teddy Bear|amount@94|filepath@images/misc_items/teddy_bear.png|WG@1|VAL@3
Tin Can@NULL|name@Tin Can|amount@51|filepath@images/misc_items/tin_can.png|WG@1|VAL@1
Tin Plate@NULL|name@Tin Plate|amount@98|filepath@images/misc_items/tin_plate.png|WG@1|VAL@1
Toaster@NULL|name@Toaster|amount@73|filepath@images/misc_items/toaster.png|WG@5|VAL@3
Toaster@NULL|name@Toaster|amount@51|filepath@images/misc_items/toaster.png|WG@5|VAL@3
Toy Car@NULL|name@Toy Car|amount@49|filepath@images/misc_items/toy_car.png|WG@1|VAL@5
Triangle@NULL|name@Triangle|amount@46|filepath@images/misc_items/triangle.png|WG@1|VAL@1
Turpentine@NULL|name@Turpentine|amount@25|filepath@images/misc_items/turpentine.png|WG@2|VAL@10
Tweezers@NULL|name@Tweezers|amount@47|filepath@images/misc_items/tweezers.png|WG@1|VAL@3
Vacuum Cleaner@NULL|name@Vacuum Cleaner|amount@32|filepath@images/misc_items/vacuum_cleaner.png|WG@10|VAL@20
Whet Stone@NULL|name@Whet Stone|amount@72|filepath@images/misc_items/whet_stone.png|WG@2|VAL@1
White Plate@NULL|name@White Plate|amount@52|filepath@images/misc_items/white_plate.png|WG@1|VAL@1
Wood Chipper@NULL|name@Wood Chipper|amount@86|filepath@images/misc_items/wood_chipper.png|WG@50|VAL@25
Wonderglue@NULL|name@Wonderglue|amount@31|filepath@images/misc_items/wonderglue.png|WG@1|VAL@10
Wrench@NULL|name@Wrench|amount@98|filepath@images/misc_items/wrench.png|WG@1|VAL@1
Yeast@NULL|name@Yeast|amount@50|filepath@images/misc_items/yeast.png|WG@4|VAL@21
Constitution Of The United States@NULL|name@Constitution Of The United States|amount@88|filepath@images/misc_items/constitution_of_the_united_states.png|WG@1|VAL@1
Safari Membership Card@NULL|name@Safari Membership Card|amount@31|filepath@images/misc_items/safari_membership_card.png|WG@0|VAL@1
Survival Guide Manuscript@NULL|name@Survival Guide Manuscript|amount@79|filepath@images/misc_items/survival_guide_manuscript.png|WG@0|VAL@0
U.S. Declaration Of War On China@NULL|name@U.S. Declaration Of War On China|amount@39|filepath@images/misc_items/us_declaration_of_war_on_china.png|WG@1|VAL@1
Beryllium Agitator@NULL|name@Beryllium Agitator|amount@16|filepath@images/misc_items/beryllium_agitator.png|WG@3|VAL@250
Carrington's Prototype@NULL|name@Carrington's Prototype|amount@92|filepath@images/misc_items/carrington's_prototype.png|WG@5|VAL@0
Courser Chip@NULL|name@Courser Chip|amount@54|filepath@images/misc_items/courser_chip.png|WG@0|VAL@1
Cybernetic Brain Augmenter@NULL|name@Cybernetic Brain Augmenter|amount@99|filepath@images/misc_items/cybernetic_brain_augmenter.png|WG@1|VAL@250
Explosive Charge@NULL|name@Explosive Charge|amount@31|filepath@images/misc_items/explosive_charge.png|WG@5|VAL@200
Experimental Serum@NULL|name@Experimental Serum|amount@77|filepath@images/misc_items/experimental_serum.png|WG@0|VAL@0
Flux Sensor@NULL|name@Flux Sensor|amount@88|filepath@images/misc_items/flux_sensor.png|WG@0.1|VAL@1
Fusion Pulse Charge@NULL|name@Fusion Pulse Charge|amount@87|filepath@images/misc_items/fusion_pulse_charge.png|WG@3|VAL@31
Green Paint@NULL|name@Green Paint|amount@67|filepath@images/misc_items/green_paint.png|WG@0|VAL@0
Haptic Drive@NULL|name@Haptic Drive|amount@19|filepath@images/misc_items/haptic_drive.png|WG@0.1|VAL@1
Marowski Heist Photo@NULL|name@Marowski Heist Photo|amount@84|filepath@images/misc_items/marowski_heist_photo.png|WG@0|VAL@0
Mass Fusion Executive ID@NULL|name@Mass Fusion Executive ID|amount@56|filepath@images/misc_items/mass_fusion_executive_id.png|WG@0.1|VAL@2
MILA@NULL|name@MILA|amount@14|filepath@images/misc_items/mila.png|WG@0|VAL@0
Map To Compound@NULL|name@Map To Compound|amount@88|filepath@images/misc_items/map_to_compound.png|WG@0|VAL@0
Modified Seeds@NULL|name@Modified Seeds|amount@40|filepath@images/misc_items/modified_seeds.png|WG@0|VAL@0
NX-42 Guidance Chip@NULL|name@NX-42 Guidance Chip|amount@1|filepath@images/misc_items/nx-42_guidance_chip.png|WG@0|VAL@150
Prevent@NULL|name@Prevent|amount@29|filepath@images/misc_items/prevent.png|WG@1|VAL@1
Reactor Coolant@NULL|name@Reactor Coolant|amount@16|filepath@images/misc_items/reactor_coolant.png|WG@1|VAL@0
Reflex Capacitor@NULL|name@Reflex Capacitor|amount@36|filepath@images/misc_items/reflex_capacitor.png|WG@0.1|VAL@1
San Francisco Sunlights@NULL|name@San Francisco Sunlights|amount@18|filepath@images/misc_items/san_francisco_sunlights.png|WG@0.1|VAL@5
Silver Shroud Calling Card@NULL|name@Silver Shroud Calling Card|amount@58|filepath@images/misc_items/silver_shroud_calling_card.png|WG@0|VAL@0
Silver Shroud Costume@NULL|name@Silver Shroud Costume|amount@40|filepath@images/misc_items/silver_shroud_costume.png|WG@2|VAL@40
Silver Submachine Gun Prop@NULL|name@Silver Submachine Gun Prop|amount@81|filepath@images/misc_items/silver_submachine_gun_prop.png|WG@1|VAL@1
Technical Document@NULL|name@Technical Document|amount@61|filepath@images/misc_items/technical_document.png|WG@0|VAL@1
Viable Blood Sample@NULL|name@Viable Blood Sample|amount@41|filepath@images/misc_items/viable_blood_sample.png|WG@0.1|VAL@10
Warhead@NULL|name@Warhead|amount@26|filepath@images/misc_items/warhead.png|WG@0|VAL@0
Wilson Atomatoys ID Card@NULL|name@Wilson Atomatoys ID Card|amount@78|filepath@images/misc_items/wilson_atomatoys_id_card.png|WG@0.1|VAL@2
Bobby Pin@NULL|name@Bobby Pin|amount@79|filepath@images/misc_items/bobby_pin.png|WG@0|VAL@1
Book Return Token@NULL|name@Book Return Token|amount@45|filepath@images/misc_items/book_return_token.png|WG@0|VAL@1
Burnt Book@NULL|name@Burnt Book|amount@86|filepath@images/misc_items/burnt_book.png|WG@1|VAL@0
Burnt Fashion Magazine@NULL|name@Burnt Fashion Magazine|amount@60|filepath@images/misc_items/burnt_fashion_magazine.png|WG@0|VAL@1
Burnt Grognak Comic@NULL|name@Burnt Grognak Comic|amount@9|filepath@images/misc_items/burnt_grognak_comic.png|WG@0|VAL@1
Burnt Lifestyle Magazine@NULL|name@Burnt Lifestyle Magazine|amount@52|filepath@images/misc_items/burnt_lifestyle_magazine.png|WG@0|VAL@1
Burnt Manta-Man Comic@NULL|name@Burnt Manta-Man Comic|amount@4|filepath@images/misc_items/burnt_manta-man_comic.png|WG@0|VAL@1
Burnt Textbook@NULL|name@Burnt Textbook|amount@3|filepath@images/misc_items/burnt_textbook.png|WG@1|VAL@0
Burnt Trade Magazine@NULL|name@Burnt Trade Magazine|amount@28|filepath@images/misc_items/burnt_trade_magazine.png|WG@0|VAL@1
Burnt Unstoppables Comic@NULL|name@Burnt Unstoppables Comic|amount@84|filepath@images/misc_items/burnt_unstoppables_comic.png|WG@0|VAL@1
Cybernetic Limb Actuator@NULL|name@Cybernetic Limb Actuator|amount@17|filepath@images/misc_items/cybernetic_limb_actuator.png|WG@1|VAL@250
Cybernetic Pain Inhibitor@NULL|name@Cybernetic Pain Inhibitor|amount@60|filepath@images/misc_items/cybernetic_pain_inhibitor.png|WG@1|VAL@250
Delivered Boston Bugle@NULL|name@Delivered Boston Bugle|amount@5|filepath@images/misc_items/delivered_boston_bugle.png|WG@0.1|VAL@0
Eyebot Model@NULL|name@Eyebot Model|amount@87|filepath@images/misc_items/eyebot_model.png|WG@0|VAL@100
Folder@NULL|name@Folder|amount@58|filepath@images/misc_items/folder.png|WG@0|VAL@1
Lab Scale@NULL|name@Lab Scale|amount@88|filepath@images/misc_items/lab_scale.png|WG@0|VAL@0
Mr. Gutsy Model@NULL|name@Mr. Gutsy Model|amount@51|filepath@images/misc_items/mr_gutsy_model.png|WG@0|VAL@100
Mr. Handy Model@NULL|name@Mr. Handy Model|amount@68|filepath@images/misc_items/mr_handy_model.png|WG@0|VAL@100
Napkin@NULL|name@Napkin|amount@3|filepath@images/misc_items/napkin.png|WG@0|VAL@1
Overdue Book@NULL|name@Overdue Book|amount@89|filepath@images/misc_items/overdue_book.png|WG@0.5|VAL@2
Protectron Model@NULL|name@Protectron Model|amount@62|filepath@images/misc_items/protectron_model.png|WG@0|VAL@100
Robot Parts Model@NULL|name@Robot Parts Model|amount@41|filepath@images/misc_items/robot_parts_model.png|WG@0|VAL@0
Ruined Book@NULL|name@Ruined Book|amount@31|filepath@images/misc_items/ruined_book.png|WG@0|VAL@0
Sentry Bot Model@NULL|name@Sentry Bot Model|amount@6|filepath@images/misc_items/sentry_bot_model.png|WG@0|VAL@100
Stingwing Barb@NULL|name@Stingwing Barb|amount@27|filepath@images/misc_items/stingwing_barb.png|WG@0.5|VAL@6
Subway Token@NULL|name@Subway Token|amount@55|filepath@images/misc_items/subway_token.png|WG@0|VAL@1
Vault-Tec Lunchbox@NULL|name@Vault-Tec Lunchbox|amount@20|filepath@images/misc_items/vault-tec_lunchbox.png|WG@0|VAL@10
Beacon Amplifier@NULL|name@Beacon Amplifier|amount@40|filepath@images/misc_items/beacon_amplifier.png|WG@0|VAL@5
Beacon Oscillator@NULL|name@Beacon Oscillator|amount@76|filepath@images/misc_items/beacon_oscillator.png|WG@0|VAL@5
Burnt Technical Manual@NULL|name@Burnt Technical Manual|amount@75|filepath@images/misc_items/burnt_technical_manual.png|WG@1|VAL@0
Eyebot Pod Schematics@NULL|name@Eyebot Pod Schematics|amount@2|filepath@images/misc_items/eyebot_pod_schematics.png|WG@0|VAL@25
Jezebel's Head@NULL|name@Jezebel's Head|amount@95|filepath@images/misc_items/jezebel's_head.png|WG@0|VAL@0
Radar Beacon@NULL|name@Radar Beacon|amount@54|filepath@images/misc_items/radar_beacon.png|WG@0|VAL@5
Robot Workbench Schematics@NULL|name@Robot Workbench Schematics|amount@12|filepath@images/misc_items/robot_workbench_schematics.png|WG@0|VAL@25
Spotlight Schematics@NULL|name@Spotlight Schematics|amount@51|filepath@images/misc_items/spotlight_schematics.png|WG@0|VAL@25
Avery's Locket@NULL|name@Avery's Locket|amount@94|filepath@images/misc_items/avery's_locket.png|WG@0.1|VAL@60
Avery's Skull@NULL|name@Avery's Skull|amount@10|filepath@images/misc_items/avery's_skull.png|WG@1|VAL@1
Banner Piece@NULL|name@Banner Piece|amount@41|filepath@images/misc_items/banner_piece.png|WG@0|VAL@0
Campground Banner@NULL|name@Campground Banner|amount@85|filepath@images/misc_items/campground_banner.png|WG@0|VAL@0
Data@NULL|name@Data|amount@76|filepath@images/misc_items/data.png|WG@0|VAL@0
Fog Condenser Component@NULL|name@Fog Condenser Component|amount@12|filepath@images/misc_items/fog_condenser_component.png|WG@0.5|VAL@0
Industrial-grade Fuse@NULL|name@Industrial-grade Fuse|amount@72|filepath@images/misc_items/industrial-grade_fuse.png|WG@0.5|VAL@15
Mirelurk Carapace@NULL|name@Mirelurk Carapace|amount@96|filepath@images/misc_items/mirelurk_carapace.png|WG@2|VAL@60
Missing Synth's Head@NULL|name@Missing Synth's Head|amount@64|filepath@images/misc_items/missing_synth's_head.png|WG@1|VAL@0
Mother Icon@NULL|name@Mother Icon|amount@17|filepath@images/misc_items/mother_icon.png|WG@0|VAL@100
Power Tools@NULL|name@Power Tools|amount@21|filepath@images/misc_items/power_tools.png|WG@5|VAL@500
Pump Regulator@NULL|name@Pump Regulator|amount@91|filepath@images/misc_items/pump_regulator.png|WG@0.25|VAL@1
Storage Drive@NULL|name@Storage Drive|amount@29|filepath@images/misc_items/storage_drive.png|WG@6|VAL@0
