Iron Fist@NULL|name@Iron Fist|value@1|filepath@images/skills/iron_fist.png|attr@STR|rank@1|level@0#9#18#31#46|text@Channel your chi to unleash devastating fury! Punching attacks do 20% more damage to your opponent.#Punching attacks now do 40% more damage and can disarm your opponent.#Punching attacks now do 60% more damage. Unarmed Power Attacks have a chance to cripple one of your opponent's limbs.#Punching attacks now do 80% more damage. Unarmed Power Attacks have an increased chance to cripple one of your opponent's limbs.#Punching attacks now do double damage. Criticals in V.A.T.S. will paralyze your opponent.
Big Leagues@NULL|name@Big Leagues|value@1|filepath@images/skills/big_leagues.png|attr@STR|rank@2|level@0#7#15#27#42|text@Swing for the fences! Do 20% more melee weapon damage.#You now do 40% more melee weapon damage and gain a chance to disarm your opponent.#You now do 60% more melee weapon damage and gain an increased chance to disarm your opponent.#You now do 80% more melee weapon damage and hit all targets in front of you.#You now do double damage with a melee weapon, and gain a chance to cripple your opponent, or grand slam their head clean off!
Armorer@NULL|name@Armorer|value@1|filepath@images/skills/armorer.png|attr@STR|rank@3|level@0#13#25#39|text@Protect yourself from the dangers of the Wasteland with access to base level and Rank 1 armor mods.#You gain access to Rank 2 armor mods.#You gain access to Rank 3 armor mods.#You gain access to Rank 4 armor mods.
Blacksmith@NULL|name@Blacksmith|value@1|filepath@images/skills/blacksmith.png|attr@STR|rank@4|level@0#16#29|text@Fire up the forge and gain access to base level and Rank 1 melee weapon mods.#You gain access to Rank 2 melee weapon mods.#You gain access to Rank 3 melee weapon mods.
Heavy Gunner@NULL|name@Heavy Gunner|value@4|filepath@images/skills/heavy_gunner.png|attr@STR|rank@5|level@0#11#21#35#47|text@Thanks to practice and conditioning, heavy guns do 20% more damage.#Heavy guns now do 40% more damage, and have improved hip fire accuracy.#Heavy guns now do 60% more damage. Hip fire accuracy is increased even more.#Heavy guns now do 80% more damage and have a chance to stagger your opponent.#Heavy guns now do double damage.
Strong Back@NULL|name@Strong Back|value@2|filepath@images/skills/strong_back.png|attr@STR|rank@6|level@0#10#20#30#40|text@What are you, part pack mule? Gain +25 to carry weight#You now have +50 to carry weight.#When overencumbered, you can use Action Points to run.#When overencumbered, you can fast travel.#When overencumbered, running costs 50% less action points.
Steady Aim@NULL|name@Steady Aim|value@3|filepath@images/skills/steady_aim.png|attr@STR|rank@7|level@0#28#49|text@Stay on target! Hip-fire accuracy is improved when firing any gun.#Hip-fire accuracy is improved even more when firing any gun.#Hip-fire damage is improved when firing any gun.
Basher@NULL|name@Basher|value@3|filepath@images/skills/basher.png|attr@STR|rank@8|level@0#5#14#26|text@Get up close and personal! Gun bashing does 25% more damage.#Gun bashing now does 50% more damage and possibly cripples your opponent.#Gun bashing now does 75% more damage and has an increased chance to cripple your opponent.#Gun bashing does double damage and has an increased chance to cripple your opponent. It may also inflict a Critical Hit.
Rooted@NULL|name@Rooted|value@2|filepath@images/skills/rooted.png|attr@STR|rank@9|level@0#22#43|text@You're part tree! While standing still, you gain +25 Damage Resistance and your melee and unarmed attacks deal 25% more damage.#While standing still, you now gain +50 Damage Resistance and your melee and unarmed attacks deal 50% more damage.#While standing still, you may automatically disarm enemies that use melee weapons against you.
Pain Train@NULL|name@Pain Train|value@3|filepath@images/skills/pain_train.png|attr@STR|rank@10|level@0#24#50|text@Choo Choo! All aboard! While wearing Power Armor,sprinting into enemies hurts and staggers them. (Robots and oversized enemies are immune to the stagger.)#Sprinting into enemies while wearing Power Armor now causes severe damage and a more powerful stagger. (Robots and oversized enemies are immune to the stagger.)#Sprinting into enemies while wearing Power Armor now causes massive damage and knocks them down. Impact landing near enemies inflicts even more damage.
Pickpocket@NULL|name@Pickpocket|value@1|filepath@images/skills/pickpocket.png|attr@PER|rank@1|level@0#6#17#30|text@Your quick hands and sticky fingers make picking pockets 25% easier.#Picking pockets is now 50% easier. You can place a live grenade in a person's inventory.#Picking pockets is now 75% easier, and you can steal equipped weapons.#Picking pockets is now twice as easy, and you can steal equipped items.
Rifleman@NULL|name@Rifleman|value@4|filepath@images/skills/rifleman.png|attr@PER|rank@2|level@0#9#18#31#46|text@Keep your distance long and your kill-count high. Attacks with non-automatic rifles do 20% more damage#Attacks with non-automatic rifles do 40% more damage and ignore 15% of a target's armor.#Attacks with non-automatic rifles do 60% more damage and ignore 20% of a target's armor.#Attacks with non-automatic rifles do 80% more damage and ignore 25% of a target's armor. They also have a slight chance of crippling a limb.#Attacks with non-automatic rifles do double damage and ignore 30% of a target's armor. They also have a slightly higher chance of crippling a limb.
Awareness@NULL|name@Awareness|value@2|filepath@images/skills/awareness.png|attr@PER|rank@3|level@0#14|text@To defeat your enemies, know their weaknesses! You can view a target's specific damage resistances in V.A.T.S.#Knowing their weaknesses lets you attack more efficiently. 5% increase to hit chance and damage dealt to VATS targets.
Locksmith@NULL|name@Locksmith|value@2|filepath@images/skills/locksmith.png|attr@PER|rank@4|level@0#7#18#41|text@Your nimble fingers allow you to pick advanced locks.#You can pick Expert locks.#You can pick Master locks.#Your bobby pins never break during lockpicking.
Demolition Expert@NULL|name@Demolition Expert|value@2|filepath@images/skills/demolition_expert.png|attr@PER|rank@5|level@0#10#22#34|text@The bigger the boom, the better! Your explosives do 25% more damage, and you can craft explosives at any Chemistry Station.#Your explosives do 50% more damage, and grenades gain a throwing arc.#Your explosives do 75% more damage and affect a larger area.#Your explosives now do double damage. Mines and grenades shot in V.A.T.S explode for double damage, too.
Night Person@NULL|name@Night Person|value@3|filepath@images/skills/night_person.png|attr@PER|rank@6|level@0#25#37|text@You are a creature of the night! Gain +2 to Intelligence and Perception between the hours of 6:00 p.m. and 6:00 a.m.#You now have +3 to Intelligence and Perception between the hours of 6:00 p.m. and 6:00 a.m., and night vision when sneaking.#You have 30 extra health between the hours of 6:00 PM and 6:00 AM.
Refractor@NULL|name@Refractor|value@2|filepath@images/skills/refractor.png|attr@PER|rank@7|level@0#11#21#35#42|text@You must be part mirror!  Instantly gain +10 Energy Resistance.#You now have +20 Energy Resistance.#You now have +30 Energy Resistance.#You now have +40 Energy Resistance.#You now have +50 Energy Resistance.
Sniper@NULL|name@Sniper|value@1|filepath@images/skills/sniper.png|attr@PER|rank@8|level@0#13#26|text@It's all about focus. You have improved control and can hold your breath longer when aiming with scopes.#"Non-automatic, scoped rifles have a chance of knocking down your target." Chance is 15%#Non-automatic, scoped rifles gain +25% accuracy to head shot in V.A.T.S.
Penetrator@NULL|name@Penetrator|value@2|filepath@images/skills/penetrator.png|attr@PER|rank@9|level@0#28|text@There's no place to hide! In V.A.T.S you can target an enemy's body parts that are blocked by cover, with a decrease in accuracy.#In V.A.T.S when you target an enemy's body parts that are blocked by cover, there is no decrease in accuracy.
Concentrated Fire@NULL|name@Concentrated Fire|value@1|filepath@images/skills/concentrated_fire.png|attr@PER|rank@10|level@0#26#50|text@Stay Focused! In V.A.T.S every attack on the same body part gains +10% accuracy.#In V.A.T.S every attack on the same body part gains +15% accuracy.#In V.A.T.S every attack on the same body part gains +20% accuracy and does 20% more damage.
Toughness@NULL|name@Toughness|value@5|filepath@images/skills/toughness.png|attr@END|rank@1|level@0#9#18#31#46|text@If nothing else, you can take a beating! Instantly gain +10 Damage Resistance#You now have +20 damage resistance.#You now have +30 damage resistance.#You now have +40 damage resistance.#You now have +50 damage resistance.
Lead Belly@NULL|name@Lead Belly|value@3|filepath@images/skills/lead_belly.png|attr@END|rank@2|level@0#6#17|text@Your digestive tract has adjusted to the weirdness of the Wasteland! Take less radiation from eating or drinking.#You take even less radiation from eating or drinking.#You take no radiation from eating or drinking.
Lifegiver@NULL|name@Lifegiver|value@2|filepath@images/skills/lifegiver.png|attr@END|rank@3|level@0#8#20|text@You embody wellness! Instantly gain +20 maximum Health.#You instantly gain another +20 maximum Health.#You instantly gain another +20 maximum Health, and slowly regenerate lost Health.
Chem Resistant@NULL|name@Chem Resistant|value@2|filepath@images/skills/chem_resistant.png|attr@END|rank@4|level@0#22|text@All the rush without the hassle! You're 50% less likely to get addicted when consuming Chems#You gain complete immunity to chem addiction.
Aquaboy@NULL|name@Aquaboy|value@2|filepath@images/skills/aquaboy.png|attr@END|rank@5|level@0#21|text@Water is your ally. You no longer take radiation damage from swimming, and can breathe underwater.#You become totally undetectable while submerged.
Rad Resistant@NULL|name@Rad Resistant|value@2|filepath@images/skills/rad_resistant.png|attr@END|rank@6|level@0#13#26#35|text@Exposure to the Wasteland has made you more resilient, instantly granting +10 Radiation Resistance.#You now have +20 Radiation Resistance.#You now have +30 Radiation Resistance.#You now have +40 Radiation Resistance.
Adamantium Skeleton@NULL|name@Adamantium Skeleton|value@1|filepath@images/skills/adamantium_skeleton.png|attr@END|rank@7|level@0#13#26|text@Your skeleton has been infused with indestructible metal, reducing limb damage by 30%.#Your limb damage is now reduced by 60%.#Your limb damage is completely eliminated.
Cannibal@NULL|name@Cannibal|value@3|filepath@images/skills/cannibal.png|attr@END|rank@8|level@0#19#38|text@Feast on mortal flesh to heal your wounds! Eating human corpses restores Health.#Eating Ghoul or Super Mutant corpses restores Health.#Eating human, Ghoul or Super Mutant corpses now restores a significant amount of Health.
Ghoulish@NULL|name@Ghoulish|value@2|filepath@images/skills/ghoulish.png|attr@END|rank@9|level@0#24#48#50|text@Sure, you're still human - on the outside! Radiation now regenerates your lost Health.#Radiation now regenerates even more of your lost Health.#Radiation now regenerates even more of your lost Health, and some Feral Ghouls will randomly become friendly.#Rad damage will now begin to slowly heal, restoring health in the process.
Solar Powered@NULL|name@Solar Powered|value@2|filepath@images/skills/solar_powered.png|attr@END|rank@10|level@0#27#50|text@Catch some rays! Gain +2 to Strength and Endurance between the hours of 6:00a.m. and 6:00p.m.#Sunlight slowly heals your radiation damage.#Sunlight slowly regenerates your lost Health.
Cap Collector@NULL|name@Cap Collector|value@3|filepath@images/skills/cap_collector.png|attr@CHA|rank@1|level@0#20#41|text@You've mastered the art of the deal! Buying and selling prices at vendors are better.#Buying and selling prices of vendors are now much better.#You can now invest a total of 500 caps to raise a store's buying capacity.
Lady Killer@NULL|name@Lady Killer|value@3|filepath@images/skills/lady_killer.png|attr@CHA|rank@2|level@0#7#22|text@You're charming... and dangerous. Men/Women suffer +5% damage in combat, and are easier to persuade in dialogue.#Men/Women now suffer +10% damage in combat, and are even easier to persuade in dialogue. They are also easier to pacify with the Intimidation perk.#Men/Women now suffer +15% damage in combat, and are much easier to persuade in dialogue. They are now even easier to pacify with the Intimidation perk.
Lone Wanderer@NULL|name@Lone Wanderer|value@4|filepath@images/skills/lone_wanderer.png|attr@CHA|rank@3|level@0#17#40#50|text@Who needs friends, anyway? When adventuring without a companion, you take 15% less damage and carry weight increases by 50.#When adventuring without a companion, you take 30% less damage and carry weight increases by 100#When adventuring without a companion, you do 25% more damage.#When adventuring without a companion, you have 25 more action points.
Attack Dog@NULL|name@Attack Dog|value@1|filepath@images/skills/attack_dog.png|attr@CHA|rank@4|level@0#9#25#31|text@Your faithful canine companion can hold an enemy, giving you a greater chance to hit them in V.A.T.S.#When your dog holds an enemy, there's a chance he'll cripple the limb he's biting.#When your dog holds an enemy, there's a chance he'll cause them to bleed.#When adventuring with your dog, you take 10% less damage.
Animal Friend@NULL|name@Animal Friend|value@1|filepath@images/skills/animal_friend.png|attr@CHA|rank@5|level@0#12#28|text@Commune with beasts! With your gun, aim at any animal below your level and gain a chance to pacify it.#When you successfully pacify an animal, you can incite it to attack#When you successfully pacify an animal, you can give it specific commands
Local Leader@NULL|name@Local Leader|value@2|filepath@images/skills/local_leader.png|attr@CHA|rank@6|level@0#14|text@As the ruler everyone turns to, you are able to establish supply lines between your workshop settlements.#You can build stores and workstations at workshop settlements.
Party Boy@NULL|name@Party Boy|value@1|filepath@images/skills/party_boy.png|attr@CHA|rank@7|level@0#15#37|text@Nobody has a good time like you! There's no chance you'll get addicted to alcohol.#The effects of alcohol are doubled.#Your Luck is increased by 3 while you're under the influence of alcohol.
Inspirational@NULL|name@Inspirational|value@3|filepath@images/skills/inspirational.png|attr@CHA|rank@8|level@0#19#43|text@Because you lead by example, your companion does more damage in combat, and cannot hurt you.#Your companion resists more damage in combat, and can't be harmed by your attacks.#Your companion can carry more items.
Wasteland Whisperer@NULL|name@Wasteland Whisperer|value@1|filepath@images/skills/wasteland_whisperer.png|attr@CHA|rank@9|level@0#21#49|text@Master the post-apocalypse! With your gun, aim at any Wasteland creature below your level and gain a chance to pacify it.#When you successfully pacify a creature, you can incite it to attack.#When you successfully pacify a creature, you can give it specific commands.
Intimidation@NULL|name@Intimidation|value@2|filepath@images/skills/intimidation.png|attr@CHA|rank@10|level@0#23#50|text@Time to show everyone who's boss! With your gun, aim at any human opponent below your level and gain a chance to pacify them.#When you successfully pacify someone, you can incite them to attack.#When you successfully pacify someone, you can give them specific commands.
V.A.N.S.@NULL|name@V.A.N.S.|value@2|filepath@images/skills/vans.png|attr@INT|rank@1|level@0#36|text@Let Vault-Tec guide you! The path to your closest quest target is displayed in V.A.T.S.#Gain +2 to Perception.
Medic@NULL|name@Medic|value@3|filepath@images/skills/medic.png|attr@INT|rank@2|level@0#18#30#49|text@Is there a doctor in the house? Stimpaks restore 40% of lost Health, and RadAway removes 40% of radiation.#Stimpaks restore 60% of lost Health, and RadAway removes 60% of radiation#Stimpaks restore 80% of lost Health, and RadAway removes 80% of radiation#Stimpaks and RadAway restore all lost health and radiation, and work much more quickly.
Gun Nut@NULL|name@Gun Nut|value@1|filepath@images/skills/gun_nut.png|attr@INT|rank@3|level@0#13#25#39|text@You gain access to base level and Rank 1 gun mods#You gain access to Rank 2 gun mods#You gain access to Rank 3 gun mods#You gain access to Rank 4 gun mods
Hacker@NULL|name@Hacker|value@4|filepath@images/skills/hacker.png|attr@INT|rank@4|level@0#9#21#33|text@Knowledge of cutting-edge computer encryption allows you to hack Advanced terminals#You can hack Expert terminals.#You can hack Master terminals.#When hacking, you never get locked out of a terminal when things go wrong.
Scrapper@NULL|name@Scrapper|value@2|filepath@images/skills/scrapper.png|attr@INT|rank@5|level@0#23#40|text@Waste not, want not!  You can salvage uncommon components like screws, aluminum, and copper when scrapping weapons and armor.#You can salvage rare components like circuitry, nuclear material, and fiber optics when scrapping weapons and armor. Items with favorited components are highlighted.#You get more from salvaging.
Science!@NULL|name@Science!|value@3|filepath@images/skills/science!.png|attr@INT|rank@6|level@0#17#28#41|text@Take full advantage of advanced technology with access to base level and Rank 1 high-tech mods.#You gain access to Rank 2 high-tech mods.#You gain access to Rank 3 high-tech mods.#You gain access to Rank 4 high-tech mods.
Chemist@NULL|name@Chemist|value@1|filepath@images/skills/chemist.png|attr@INT|rank@7|level@0#16#32#45|text@Any chems you take last 50% longer. Far out.#Any chems you take now last twice as long.#Any chems you take now last an additional 150% longer.#Any chems you take now last an additional 200% longer.
Robotics Expert@NULL|name@Robotics Expert|value@3|filepath@images/skills/robotics_expert.png|attr@INT|rank@8|level@0#19#44|text@Machines will always serve humans, if you have anything to say about it. Hack a robot, and gain a chance to power it on or off, or initiate a self-destruct.#When you successfully hack a robot, you can incite it to attack.#When you successfully hack a robot, you can give it specific commands.
Nuclear Physicist@NULL|name@Nuclear Physicist|value@2|filepath@images/skills/nuclear_physicist.png|attr@INT|rank@9|level@0#14#26|text@You've learned to split the atom... and command it. Radiation weapons do 50% more damage and Fusion Cores last an extra 25% longer.#Radiation weapons now do double damage and Fusion Cores last an extra 50% longer.#Fusion Cores can be ejected from Power Armor like devastating grenades and Fusion Cores last twice as long.
Nerd Rage!@NULL|name@Nerd Rage!|value@2|filepath@images/skills/nerd_rage!.png|attr@INT|rank@10|level@0#31#50|text@Genius. Is. ANGRY! When your Health drops below 20%, time slows and you gain +20 Damage resistance and do 20% more damage while the effect lasts.#You now gain 30 more Damage Resistance and do 30% more damage while Nerd Rage is in effect.#You now gain 40 more Damage Resistance and do 40% more damage while Nerd Rage is in effect. Kills you make while enraged restore some lost Health.
Gunslinger@NULL|name@Gunslinger|value@2|filepath@images/skills/gunslinger.png|attr@AGI|rank@1|level@0#7#15#27#42|text@Channel the spirit of the old west! Non-automatic pistols do 20% more damage.#Non-automatic pistols now do 40% more damage and have increased range.#Non-automatic pistols now do 60% more damage and range is increased even further.#Non-automatic pistols now do 80% more damage and their attacks can disarm opponents.#Non-automatic pistols now do double damage. Their attacks have a much better chance to disarm opponents, and may even cripple a limb.
Commando@NULL|name@Commando|value@5|filepath@images/skills/commando.png|attr@AGI|rank@2|level@0#11#21#35#49|text@Rigorous combat training means automatic weapons do 20% more damage#Attacks with automatic weapons do 40% more damage, with improved hip fire accuracy.#Attacks with automatic weapons do 60% more damage. Hip fire accuracy is improved even more.#Attacks with automatic weapons do 80% more damage and gain a chance to stagger opponents.#Your automatic weapons now do double damage and have a greater chance to stagger opponents.
Sneak@NULL|name@Sneak|value@4|filepath@images/skills/sneak.png|attr@AGI|rank@3|level@0#5#12#23#38|text@Become whisper, become shadow. You are 20% harder to detect while sneaking.#You are now 30% harder to detect while sneaking, and no longer trigger floor-based traps.#You are now 40% harder to detect while sneaking, and no longer trigger enemy mines.#You are now 50% harder to detect while sneaking, and running no longer adversely affects stealth.#Engaging stealth causes distant enemies to lose you.
Mister Sandman@NULL|name@Mister Sandman|value@2|filepath@images/skills/mister_sandman.png|attr@AGI|rank@4|level@0#17#30|text@As an agent of death, you can instantly kill a sleeping person.  Your silenced weapons do an additional 15% sneak attack damage.#Your silenced weapons do an additional 30% sneak attack damage.#Your silenced weapons now do 50% more sneak attack damage.
Action Boy/Action Girl@NULL|name@Action Boy/Action Girl|value@2|filepath@images/skills/action_boy_action_girl.png|attr@AGI|rank@5|level@0#18#38|text@There's no time to waste! Action Points regenerate 25% faster.#Your Action Points now regenerate 50% faster.#Your Action Points now regenerate 75% faster.
Moving Target@NULL|name@Moving Target|value@1|filepath@images/skills/moving_target.png|attr@AGI|rank@6|level@0#24#44|text@They can't hurt what they can't hit! Get 25+ Damage Resistance and 25+ Energy Resistance when you're sprinting.#You now get +50 Damage Resistance and +50 Energy Resistance when you're sprinting.#Sprinting costs 50% fewer Action Points.
Ninja@NULL|name@Ninja|value@1|filepath@images/skills/ninja.png|attr@AGI|rank@7|level@0#16#33|text@Trained as a shadow warrior, your ranged sneak attack do 2.5x normal damage and your melee attacks do 4x normal damage.#Your ranged sneak attacks do 3x normal damage and your melee sneak attacks do 5x normal damage.#Your ranged sneak attacks do 3.5x normal damage and your melee sneak attacks do 10x normal damage.
Quick Hands@NULL|name@Quick Hands|value@1|filepath@images/skills/quick_hands.png|attr@AGI|rank@8|level@0#28#40|text@In combat, there's no time to hesitate. You can reload all guns faster.#Reloading guns costs no Action Points in V.A.T.S.#Quick and efficient.  You gain 10 additional Action Points.
Blitz@NULL|name@Blitz|value@1|filepath@images/skills/blitz.png|attr@AGI|rank@9|level@0#29|text@Find the gap and make the tackle! V.A.T.S. melee distance is increased significantly.#V.A.T.S. melee distance is increased even more, and the farther the Blitz distance, the greater the damage.
Gun Fu@NULL|name@Gun Fu|value@2|filepath@images/skills/gun_fu.png|attr@AGI|rank@10|level@0#26#50|text@You've learned to apply ancient martial arts to gunplay! Do 25% more damage to your second V.A.T.S. target and beyond.#In V.A.T.S. you do 50% more damage to your third target and beyond.#In V.A.T.S. you instantly do a Critical Hit against your fourth target and beyond.
Fortune Finder@NULL|name@Fortune Finder|value@4|filepath@images/skills/fortune_finder.png|attr@LCK|rank@1|level@0#5#25#40|text@You find more bottle caps in containers.#You find even more bottle caps in containers.#You find even more bottle caps in containers.#You find even more bottle caps in containers, and there is a chance of enemies exploding into a shower of caps when you kill them.
Scrounger@NULL|name@Scrounger|value@1|filepath@images/skills/scrounger.png|attr@LCK|rank@2|level@0#7#24#37|text@You find more ammunition in containers.#You find even more ammunition in containers.#You find even more ammunition in containers.#There is a chance to gain ammo when firing the last round in your clip.
Bloody Mess@NULL|name@Bloody Mess|value@1|filepath@images/skills/bloody_mess.png|attr@LCK|rank@3|level@0#9#31#47|text@+5% bonus damage means enemies will sometimes explode into a gory red paste. Watch out for flying eyeballs!#You now inflict +10% damage in combat.#You now inflict +15% damage in combat.#When an enemy explodes, nearby enemies may suffer the same fate.
Mysterious Stranger@NULL|name@Mysterious Stranger|value@4|filepath@images/skills/mysterious_stranger.png|attr@LCK|rank@4|level@0#22#41#49|text@Who is he? Why does he help? Who cares! The Mysterious Stranger will appear occasionally in V.A.T.S. to lend a hand, with deadly efficiency...#The Mysterious Stranger appears more often in V.A.T.S.#The Mysterious Stranger appears more often in V.A.T.S. When he kills an opponent, there is a chance your Critical meter gets filled.#The Mysterious Stranger appears more often in V.A.T.S. When he kills an opponent, there is a high chance your Critical meter gets filled.
Idiot Savant@NULL|name@Idiot Savant|value@1|filepath@images/skills/idiot_savant.png|attr@LCK|rank@5|level@0#11#34|text@You're not stupid! Just... different. Randomly receive 3x XP from any action, and the lower your Intelligence, the greater the chance.#You now randomly receive 5x XP from any action. The lower your Intelligence, the greater the chance.#Randomly receiving bonus XP from any action may trigger 3x XP for all kills for a short period of time. The lower your Intelligence, the greater the chance.
Better Criticals@NULL|name@Better Criticals|value@2|filepath@images/skills/better_criticals.png|attr@LCK|rank@6|level@0#15#40|text@Advanced training for enhanced combat effectiveness! Criticals do 50% more extra damage.#Your criticals now do twice as much extra damage.#Your criticals now do 2.5x as much extra damage.
Critical Banker@NULL|name@Critical Banker|value@4|filepath@images/skills/critical_banker.png|attr@LCK|rank@7|level@0#17#43#50|text@You're a patient battlefield tactician, and can save a Critical Hit, to be used in V.A.T.S. when you need it most.#You can now save 2 Critical Hits, to be used in V.A.T.S. when you need them the most.#You can now save 3 Critical Hits, to be used in V.A.T.S. when you need them the most. Banking a Critical has a chance to save an additional Critical.#You can now save 4 Critical Hits, to be used in V.A.T.S. when you need them the most.
Grim Reaper's Sprint@NULL|name@Grim Reaper's Sprint|value@3|filepath@images/skills/grim_reaper's_sprint.png|attr@LCK|rank@8|level@0#19#46|text@Death becomes you! Any kill in V.A.T.S. has a 15% chance to restore all Action Points.#Any kill in V.A.T.S. now has a 25% chance to restore all Action Points.#Any kill in V.A.T.S. has a 35% chance to restore all Action Points and refill your Critical meter.
Four Leaf Clover@NULL|name@Four Leaf Clover|value@3|filepath@images/skills/four_leaf_clover.png|attr@LCK|rank@9|level@0#13#32#48|text@Feeling Lucky? You should! Each hit in V.A.T.S. has a chance of filling your Critical meter.#Each hit in V.A.T.S. now has an even better chance of filling your Critical meter.#Each hit in V.A.T.S. now has a very good chance of filling your Critical meter.#Each hit in V.A.T.S. now has an excellent chance of filling your Critical meter.
Ricochet@NULL|name@Ricochet|value@3|filepath@images/skills/ricochet.png|attr@LCK|rank@10|level@0#29#50|text@What goes around comes around! Any enemy's ranged attacks will sometimes ricochet back and instantly kill them. The closer you are to death, the higher the chance.#There's an increased chance that an enemy's shot will ricochet back and kill them.#When an enemy's shot ricochets back and kills them, there is a chance your Critical meter gets filled.
